<svg width="32" height="32" viewBox="0 0 32 32" fill="none" xmlns="http://www.w3.org/2000/svg" version="1.1">
    <path d="M30.8732 0.929565C30.251 0.929565 29.7465 1.43413 29.7465 2.05625C29.7465 2.06831 29.7353 3.30101 29.3395 4.48868C29.1941 4.92472 29.0296 5.26702 28.8545 5.5366C28.9193 5.1207 28.9253 4.8368 28.9256 4.76924C28.9282 4.3123 28.6547 3.89899 28.233 3.72294C27.8117 3.54656 27.3251 3.64267 27.0021 3.96601C26.9946 3.97334 26.1874 4.70858 24.581 4.70858C23.8494 4.70858 23.2646 4.31876 22.5243 3.82519C21.6372 3.23378 20.6316 2.5634 19.2178 2.5634C17.7345 2.5634 16.6631 2.99319 15.9999 3.37913C15.3367 2.99319 14.2652 2.5634 12.782 2.5634C11.3683 2.5634 10.3627 3.23378 9.47556 3.82519C8.73525 4.31876 8.15052 4.70858 7.41894 4.70858C5.87809 4.70858 5.08207 4.04014 4.99189 3.95955C4.67523 3.62532 4.19986 3.53105 3.77137 3.70161C3.33996 3.87303 3.07157 4.3054 3.07437 4.76946C3.0748 4.83626 3.08083 5.11521 3.14365 5.5241C2.27642 4.22244 2.25358 2.08588 2.25336 2.05625C2.25336 1.43413 1.7489 0.929565 1.12668 0.929565C0.504566 0.929565 0 1.43413 0 2.05625V13.2112C0 13.9406 0 15.6489 1.29067 15.9536C1.57102 16.0197 1.82906 15.9956 2.06298 15.917C2.41131 18.583 3.35472 22.61 5.9075 25.1628C6.22966 25.485 6.71429 25.5813 7.13535 25.4071C7.29815 25.3396 7.43908 25.2369 7.5506 25.1098C7.57527 25.1475 7.60048 25.1855 7.6257 25.2235C9.60819 28.1972 12.4093 30.2074 15.7265 31.0366C15.8164 31.0591 15.9082 31.0703 15.9999 31.0703C16.0917 31.0703 16.1834 31.0591 16.2732 31.0366C19.5904 30.2074 22.3915 28.1971 24.3741 25.2235C24.3993 25.1856 24.4245 25.1475 24.4492 25.1098C24.5607 25.2369 24.7017 25.3396 24.8644 25.4071C25.2855 25.5813 25.77 25.4851 26.0923 25.1628C28.645 22.61 29.5884 18.583 29.9368 15.917C30.1706 15.9956 30.4287 16.0197 30.7091 15.9536C32 15.6489 32 13.9406 32 13.2112V2.05625C32 1.43413 31.4954 0.929565 30.8732 0.929565ZM5.91558 6.80377C6.35809 6.90074 6.85931 6.96194 7.41894 6.96194C8.83265 6.96194 9.83833 6.29156 10.7255 5.70015C11.4658 5.20668 12.0505 4.81687 12.782 4.81687C14.3226 4.81687 15.1187 5.48499 15.2092 5.56569C15.4213 5.79023 15.6903 5.91758 15.9999 5.91758C16.3094 5.91758 16.5785 5.79023 16.7906 5.56569C16.8812 5.48499 17.6773 4.81687 19.2178 4.81687C19.9493 4.81687 20.534 5.20668 21.2743 5.70015C22.1615 6.29156 23.1671 6.96194 24.5808 6.96194C25.1455 6.96194 25.6505 6.89967 26.0959 6.80119C25.4749 7.91268 24.1837 9.06123 21.5002 9.06123C21.1515 9.06123 20.7818 9.04205 20.4016 9.00455C19.4795 8.91319 18.2366 8.62379 16.7968 7.184C16.5768 6.96399 16.2884 6.85398 16.0001 6.85398C15.7117 6.85398 15.4234 6.96399 15.2033 7.184C13.7636 8.62379 12.5206 8.9133 11.5985 9.00455C11.2183 9.04216 10.8489 9.06123 10.5005 9.06123C10.5003 9.06123 10.5001 9.06123 10.4999 9.06123C8.36601 9.06101 6.75782 8.18742 5.91558 6.80377ZM29.7465 12.355C29.48 12.1273 29.1145 12.0307 28.756 12.1148C28.2477 12.2344 27.8882 12.688 27.8873 13.2103C27.8872 13.2627 27.8589 17.2145 26.421 20.5893C26.3932 20.0462 25.9788 19.5966 25.4334 19.5294C24.8699 19.461 24.3408 19.8224 24.2027 20.3745C24.186 20.4414 22.4776 26.991 15.9999 28.7786C13.3458 28.0479 11.175 26.454 9.54397 24.0378C8.25374 22.126 7.801 20.3892 7.79733 20.3745C7.65931 19.8223 7.13018 19.46 6.56657 19.5294C6.02106 19.5966 5.60679 20.0462 5.57899 20.5894C4.14104 17.2147 4.11281 13.2629 4.1127 13.2112C4.1127 12.6886 3.75337 12.2347 3.24482 12.1146C2.88679 12.03 2.52046 12.1268 2.25347 12.3548V7.8741C2.85069 8.35884 3.59176 8.68294 4.50392 8.74769C5.51057 10.0428 7.31108 11.3145 10.4997 11.3147C10.4999 11.3147 10.5001 11.3147 10.5003 11.3147C10.9227 11.3147 11.3669 11.292 11.8205 11.2469C13.3855 11.0919 14.7354 10.5311 16 9.49986C17.2646 10.5311 18.6145 11.0919 20.1795 11.2469C20.6331 11.292 21.0775 11.3147 21.5002 11.3147C24.6897 11.3147 26.4902 10.0428 27.4968 8.74769C28.4086 8.68262 29.1495 8.35874 29.7465 7.8741V12.355Z" fill="#F0F0F0" />
</svg>
