<svg width="32" height="22" viewBox="0 0 32 22" fill="none" xmlns="http://www.w3.org/2000/svg">
    <path d="M31.9878 2.82909C31.9823 2.13734 31.9753 1.43257 31.9753 0.71924C31.9753 0.322294 31.6639 0.000112983 31.2802 0.000112983C30.8964 0.000112983 30.585 0.322294 30.585 0.71924C30.585 5.25533 29.5743 8.56033 27.5792 10.5436C25.042 13.0648 21.1632 13.1238 18.7274 13.0447C18.4994 11.3563 17.3566 10.0676 15.9872 10.0676C14.6317 10.0676 13.5 11.3275 13.2595 13.0433C10.8126 13.1137 8.12105 12.9987 5.93001 11.6152C3.08689 9.82027 1.60209 6.24634 1.38938 0.689105C1.37406 0.293575 1.0404 -0.00844889 0.667827 0.000180362C0.284178 0.0159557 -0.0147515 0.349665 0.000563136 0.74661C0.000563136 0.74661 0.000563136 0.748027 0.000563136 0.74951C0.0450734 1.92599 0.0561521 3.07941 0.0659275 4.19258C0.110438 9.08395 0.149344 13.308 3.04525 15.6666C6.5557 18.5215 11.797 21.5733 15.9886 21.5733C20.1803 21.5733 25.423 18.5215 28.9306 15.6666C32.0796 13.1022 32.0379 8.34177 31.9878 2.82909ZM28.0701 14.5362C24.8975 17.1192 19.8272 20.1351 15.9886 20.1351C12.1501 20.1351 7.07979 17.1192 3.90717 14.5362C2.35427 13.2734 1.80092 11.165 1.59518 8.5906C2.45156 10.4531 3.65139 11.8625 5.20573 12.8448C7.91538 14.5548 11.1324 14.5779 13.9352 14.4585C14.3092 14.4426 14.5984 14.05 14.5984 13.6632C14.5984 12.4939 15.2351 11.5059 15.9886 11.5059C16.7422 11.5059 17.3789 12.4939 17.3733 13.7394C17.3733 14.1263 17.6667 14.4427 18.0407 14.4586C20.5877 14.5664 25.3451 14.762 28.5427 11.5821C29.3074 10.8213 29.9455 9.90514 30.4558 8.8366C30.2069 11.3002 29.5841 13.305 28.0701 14.5362Z"
          fill="#F0F0F0"/>
    <path d="M7.22841 10.2575C7.96384 10.2575 8.83971 9.70519 9.80734 9.09683C11.2977 8.15624 13.1551 6.98839 15.1404 7.19118C15.3754 7.19118 15.6062 7.14372 15.837 7.05021C16.0733 7.14372 16.254 7.19981 16.6016 7.18687C18.5132 6.98549 20.3748 8.15476 21.8638 9.09535C23.2763 9.98416 24.4942 10.7536 25.3644 9.85614C25.63 9.58142 25.7287 9.196 25.6355 8.79905C25.1921 6.90925 19.2347 3.70207 17.3704 3.07213C17.3008 3.04193 17.2216 3.01604 17.109 2.98442C16.9046 2.92543 16.7239 2.8895 16.5306 2.87656C16.2957 2.87656 16.0648 2.92402 15.8341 3.01752C15.6005 2.92402 15.3642 2.88377 15.0875 2.87946C14.9457 2.8895 14.7692 2.9255 14.5091 3.00026C14.4174 3.02615 14.3284 3.05635 14.3368 3.05925C12.5141 3.6604 6.48034 6.89637 6.03406 8.79912C5.94094 9.19607 6.04104 9.58148 6.30653 9.8562C6.5805 10.1396 6.88914 10.2575 7.22841 10.2575ZM14.7595 4.42982C14.79 4.41829 14.9013 4.38667 14.9305 4.37083C15.0334 4.34205 15.1209 4.31764 15.139 4.31474C15.2391 4.31474 15.3475 4.35216 15.4768 4.43265C15.6965 4.56782 15.969 4.56782 16.1887 4.43265C16.3208 4.35209 16.4292 4.31326 16.4737 4.31184C16.5432 4.31757 16.6308 4.34063 16.831 4.39814C16.8574 4.40966 16.8824 4.42112 16.9088 4.42975C18.9442 5.09994 22.7633 7.45572 23.9408 8.66382C23.5446 8.47397 23.0149 8.13885 22.5853 7.86851C21.0074 6.87183 18.8496 5.50551 16.5293 5.75293C16.4306 5.75293 16.3221 5.71551 16.1901 5.63353C15.9704 5.49836 15.6979 5.49836 15.4783 5.63353C15.3476 5.7141 15.2392 5.75293 15.21 5.75576C12.8173 5.50693 10.6624 6.87035 9.08305 7.86703C8.63958 8.14748 8.08343 8.49696 7.69971 8.69112C8.84388 7.49179 12.7074 5.1058 14.7595 4.42982Z"
          fill="#F0F0F0"/>
</svg>
