<svg width="34" height="35" viewBox="0 0 34 35" fill="none" xmlns="http://www.w3.org/2000/svg">
    <path d="M32.7095 14.8794C34.2543 8.76938 29.5386 3.3299 20.9201 1.39264C13.5492 -0.264183 5.32637 3.42605 4.2 10.5053C4.00935 11.7036 4.79909 12.8371 5 14.2312L1 20.5423L3.35789 21.7345L2.70744 24.3424L3.68311 24.864L3.03266 25.7581L4.25225 26.2797C2.87955 27.6969 2.70741 29.6327 4.25225 30.5269C5.79708 31.421 8.89357 30.7528 11.9764 30.5269V34.1034H27.9937C27.0108 30.5617 27.262 27.7699 27.9937 24.864C28.7255 21.958 31.1647 20.9893 32.7095 14.8794Z"
          stroke="#F0F0F0"/>
    <path d="M8 28.3448C10.2159 27.4753 11.3179 26.6107 13 24.2069M13 24.2069V26.2759M13 24.2069H11" stroke="#F0F0F0"/>
</svg>
